{
  "delimiter": "bcc ~/a-new-story $ ",
  "server": {
    "tpware": "https://sunil-01.skuchain.io/bcc-tpware",
    "kvware": "https://sunil-01.skuchain.io/bcc-kvware",
    "dgraph_api_url": "https://sunil-01.skuchain.io/dgraphio"
  },
  "users": [
    {
      "name": "Alice",
      "keys": {
        "publicKey": "033a792ce95ebaa90dd153593c87f978dc26021d7a34cea66e343affeef05923b6",
        "privateKey": "2a77b9c5975ef9ac338559bcb2add356b2f756c7cd5768532400d03c8f045bab",
        "address": "f8ea03537a2259fe366a82f5c8631bbba9bfa279"
      }
    },
    {
      "name": "Truck",
      "keys": {
        "publicKey": "038d835b521d7436201c718cdf961b56c7699c82371f083a8383550162619c8c7f",
        "privateKey": "72c32742a605f49221e150a06153eac480e66a59892991b62366ba9a365c99c9",
        "address": "c5f0f0bd63eb63e6525fd59bcd25edb0d8312ff5"
      }
    },
    {
      "name": "Warehouse",
      "keys": {
        "publicKey": "0293616a57177b4b58f414947ff5616596f628c89012c403f483d4e8217511d42d",
        "privateKey": "8366014ac3b9fc53123c726c9a83b89b13beba9c1b13fc0f4463f7d316de8e1c",
        "address": "e2f5f3dbec5ac99b110ff6aa6eb31e9a439ade4a"
      }
    },
    {
      "name": "Ship",
      "keys": {
        "publicKey": "0373052cde380ea977391e1fdd505c12a437c84aec9992eff4f5437370990206fa",
        "privateKey": "c94ada1ffa49b6c73f4e2d89cb9dcde08dd8697a32314bfb6d3137c26f358b82",
        "address": "a3e9f39b1f4d9022c898e06e7baba79729a91293"
      }
    }
  ],
  "popcodes": [
    {
      "publicKey": "033a792ce95ebaa90dd153593c87f978dc26021d7a34cea66e343affeef05923b6",
      "privateKey": "2a77b9c5975ef9ac338559bcb2add356b2f756c7cd5768532400d03c8f045bab",
      "address": "f8ea03537a2259fe366a82f5c8631bbba9bfa279"
    },
    {
      "publicKey": "038d835b521d7436201c718cdf961b56c7699c82371f083a8383550162619c8c7f",
      "privateKey": "72c32742a605f49221e150a06153eac480e66a59892991b62366ba9a365c99c9",
      "address": "c5f0f0bd63eb63e6525fd59bcd25edb0d8312ff5"
    },
    {
      "publicKey": "0293616a57177b4b58f414947ff5616596f628c89012c403f483d4e8217511d42d",
      "privateKey": "8366014ac3b9fc53123c726c9a83b89b13beba9c1b13fc0f4463f7d316de8e1c",
      "address": "e2f5f3dbec5ac99b110ff6aa6eb31e9a439ade4a"
    }
  ],
  "skupops": [
    {
      "skuid": {
        "domain": "sunil-01.skuchain.io",
        "id": "id1"
      },
      "keys": {
        "publicKey": "033a792ce95ebaa90dd153593c87f978dc26021d7a34cea66e343affeef05923b6",
        "privateKey": "2a77b9c5975ef9ac338559bcb2add356b2f756c7cd5768532400d03c8f045bab",
        "address": "f8ea03537a2259fe366a82f5c8631bbba9bfa279"
      }
    },
    {
      "skuid": {
        "domain": "sunil-01.skuchain.io",
        "id": "idTruck"
      },
      "keys": {
        "publicKey": "038d835b521d7436201c718cdf961b56c7699c82371f083a8383550162619c8c7f",
        "privateKey": "72c32742a605f49221e150a06153eac480e66a59892991b62366ba9a365c99c9",
        "address": "c5f0f0bd63eb63e6525fd59bcd25edb0d8312ff5"
      }
    },
    {
      "skuid": {
        "domain": "sunil-01.skuchain.io",
        "id": "idWarehouse"
      },
      "keys": {
        "publicKey": "0293616a57177b4b58f414947ff5616596f628c89012c403f483d4e8217511d42d",
        "privateKey": "8366014ac3b9fc53123c726c9a83b89b13beba9c1b13fc0f4463f7d316de8e1c",
        "address": "e2f5f3dbec5ac99b110ff6aa6eb31e9a439ade4a"
      }
    }
  ],
  "callstack": [],
  "txlist": [
    {
      "txtype": "mint",
      "txparams": {
        "server": {
          "tpware": "https://sunil-01.skuchain.io/bcc-tpware",
          "kvware": "https://sunil-01.skuchain.io/bcc-kvware",
          "dgraph_api_url": "https://sunil-01.skuchain.io/dgraphio"
        },
        "creator": {
          "name": "Alice",
          "keys": {
            "publicKey": "033a792ce95ebaa90dd153593c87f978dc26021d7a34cea66e343affeef05923b6",
            "privateKey": "2a77b9c5975ef9ac338559bcb2add356b2f756c7cd5768532400d03c8f045bab",
            "address": "f8ea03537a2259fe366a82f5c8631bbba9bfa279"
          }
        },
        "popcode": {
          "keys": {
            "publicKey": "033a792ce95ebaa90dd153593c87f978dc26021d7a34cea66e343affeef05923b6",
            "privateKey": "2a77b9c5975ef9ac338559bcb2add356b2f756c7cd5768532400d03c8f045bab",
            "address": "f8ea03537a2259fe366a82f5c8631bbba9bfa279"
          }
        },
        "data": "{\"hello\":\"world\"}",
        "Rules": [
          {
            "Name": "*-sunil-01:mintPopcode"
          }
        ],
        "Hooks": [
          {
            "Name": "*-sunil-01"
          }
        ],
        "Data": "{\"DATE\":\"2019-03-30\",\"SourceUnit\":\"C123\",\"QUANTITY\":\"10\",\"NF/CENTER\":\"AliceWarehouse1\"}",
        "EventData": "{\"skuid\":{\"domain\":\"sunil-01.skuchain.io\",\"id\":\"id1\"}}",
        "Asset": {
          "Amount": 10,
          "Name": "milk",
          "UnitOfMeasure": "liters"
        },
        "skuid": "id1"
      },
      "txid": "a3e7aee34919fdba4fead4e4fa1b2fb494b6a6efb95123bb64c823b57bb21766"
    },
    {
      "txtype": "mint",
      "txparams": {
        "server": {
          "tpware": "https://sunil-01.skuchain.io/bcc-tpware",
          "kvware": "https://sunil-01.skuchain.io/bcc-kvware",
          "dgraph_api_url": "https://sunil-01.skuchain.io/dgraphio"
        },
        "creator": {
          "name": "Truck",
          "keys": {
            "publicKey": "038d835b521d7436201c718cdf961b56c7699c82371f083a8383550162619c8c7f",
            "privateKey": "72c32742a605f49221e150a06153eac480e66a59892991b62366ba9a365c99c9",
            "address": "c5f0f0bd63eb63e6525fd59bcd25edb0d8312ff5"
          }
        },
        "popcode": {
          "keys": {
            "publicKey": "038d835b521d7436201c718cdf961b56c7699c82371f083a8383550162619c8c7f",
            "privateKey": "72c32742a605f49221e150a06153eac480e66a59892991b62366ba9a365c99c9",
            "address": "c5f0f0bd63eb63e6525fd59bcd25edb0d8312ff5"
          }
        },
        "data": "{\"hello\":\"world\"}",
        "Rules": [
          {
            "Name": "*-sunil-01:mintPopcode"
          }
        ],
        "Hooks": [
          {
            "Name": "*-sunil-01"
          }
        ],
        "Data": "{\"popcodeName\":\"Truck\"}",
        "EventData": "{\"skuid\":{\"domain\":\"sunil-01.skuchain.io\",\"id\":\"idTruck\"}}",
        "Asset": {
          "Amount": 0,
          "Name": "milk",
          "UnitOfMeasure": "liters"
        },
        "skuid": "idTruck"
      },
      "txid": "950d606349b935a6d36520ff483dba08e4d8c0fb393ca57758e54e6e9822ac00"
    },
    {
      "txtype": "mint",
      "txparams": {
        "server": {
          "tpware": "https://sunil-01.skuchain.io/bcc-tpware",
          "kvware": "https://sunil-01.skuchain.io/bcc-kvware",
          "dgraph_api_url": "https://sunil-01.skuchain.io/dgraphio"
        },
        "creator": {
          "name": "Warehouse",
          "keys": {
            "publicKey": "0293616a57177b4b58f414947ff5616596f628c89012c403f483d4e8217511d42d",
            "privateKey": "8366014ac3b9fc53123c726c9a83b89b13beba9c1b13fc0f4463f7d316de8e1c",
            "address": "e2f5f3dbec5ac99b110ff6aa6eb31e9a439ade4a"
          }
        },
        "popcode": {
          "keys": {
            "publicKey": "0293616a57177b4b58f414947ff5616596f628c89012c403f483d4e8217511d42d",
            "privateKey": "8366014ac3b9fc53123c726c9a83b89b13beba9c1b13fc0f4463f7d316de8e1c",
            "address": "e2f5f3dbec5ac99b110ff6aa6eb31e9a439ade4a"
          }
        },
        "data": "{\"hello\":\"world\"}",
        "Rules": [
          {
            "Name": "*-sunil-01:mintPopcode"
          }
        ],
        "Hooks": [
          {
            "Name": "*-sunil-01"
          }
        ],
        "Data": "{\"popcodeName\":\"Warehouse\"}",
        "EventData": "{\"skuid\":{\"domain\":\"sunil-01.skuchain.io\",\"id\":\"idWarehouse\"}}",
        "Asset": {
          "Amount": 0,
          "Name": "milk",
          "UnitOfMeasure": "liters"
        },
        "skuid": "idWarehouse"
      },
      "txid": "39dee724ced5f61ee6bac7d787e77f2b403f6671471fc761ce871d01dce6b51b"
    },
    {
      "txtype": "transferUnit",
      "txparams": {
        "server": {
          "tpware": "https://sunil-01.skuchain.io/bcc-tpware",
          "kvware": "https://sunil-01.skuchain.io/bcc-kvware",
          "dgraph_api_url": "https://sunil-01.skuchain.io/dgraphio"
        },
        "creator": {
          "keys": {}
        },
        "destPopcode": {
          "keys": {
            "publicKey": "038d835b521d7436201c718cdf961b56c7699c82371f083a8383550162619c8c7f",
            "privateKey": "72c32742a605f49221e150a06153eac480e66a59892991b62366ba9a365c99c9",
            "address": "c5f0f0bd63eb63e6525fd59bcd25edb0d8312ff5"
          }
        },
        "sourcePopcode": {
          "keys": {
            "publicKey": "033a792ce95ebaa90dd153593c87f978dc26021d7a34cea66e343affeef05923b6",
            "privateKey": "2a77b9c5975ef9ac338559bcb2add356b2f756c7cd5768532400d03c8f045bab",
            "address": "f8ea03537a2259fe366a82f5c8631bbba9bfa279"
          }
        },
        "Data": "{\"hello\":\"world\"}",
        "Rules": [
          {
            "Name": "*-sunil-01:transferUnit"
          }
        ],
        "Hooks": [
          {
            "Name": "*-sunil-01"
          }
        ],
        "EventData": "{}",
        "Amount": 10
      },
      "txid": "87ee1221ee2166d8b2d7755b71cdb900c234c5bb0741a2653728be0105269920"
    },
    {
      "txtype": "transferBatchIn",
      "txparams": {
        "server": {
          "tpware": "https://sunil-01.skuchain.io/bcc-tpware",
          "kvware": "https://sunil-01.skuchain.io/bcc-kvware",
          "dgraph_api_url": "https://sunil-01.skuchain.io/dgraphio"
        },
        "creator": {
          "keys": {}
        },
        "destPopcode": {
          "keys": {
            "publicKey": "0293616a57177b4b58f414947ff5616596f628c89012c403f483d4e8217511d42d",
            "privateKey": "8366014ac3b9fc53123c726c9a83b89b13beba9c1b13fc0f4463f7d316de8e1c",
            "address": "e2f5f3dbec5ac99b110ff6aa6eb31e9a439ade4a"
          }
        },
        "sourcePopcode": {
          "keys": {
            "publicKey": "038d835b521d7436201c718cdf961b56c7699c82371f083a8383550162619c8c7f",
            "privateKey": "72c32742a605f49221e150a06153eac480e66a59892991b62366ba9a365c99c9",
            "address": "c5f0f0bd63eb63e6525fd59bcd25edb0d8312ff5"
          }
        },
        "sourceBomPopcode": {
          "keys": {
            "publicKey": "033a792ce95ebaa90dd153593c87f978dc26021d7a34cea66e343affeef05923b6",
            "privateKey": "2a77b9c5975ef9ac338559bcb2add356b2f756c7cd5768532400d03c8f045bab",
            "address": "f8ea03537a2259fe366a82f5c8631bbba9bfa279"
          }
        },
        "Data": "{\"hello\":\"world\"}",
        "Rules": [
          {
            "Name": "*-sunil-01:transferBatchIn"
          }
        ],
        "Hooks": [
          {
            "Name": "*-sunil-01"
          }
        ],
        "SourceData": "{\"hello\":\"world\"}",
        "DestData": "{\"hello\":\"world\"}",
        "SourceEventData": "{\"skuid\":{\"domain\":\"sunil-01.skuchain.io\",\"id\":\"idTruck\"}}",
        "DestEventData": "{\"skuid\":{\"domain\":\"sunil-01.skuchain.io\",\"id\":\"idWarehouse\"}}",
        "Amount": 10
      },
      "txid": "a0f18c079fabebf1f12aeb058b6c6b7fb85125e6f107074b5d5d3bfa9f251a5c"
    }
  ]
}