[
  {
    "cmd": "pc.mint",
    "data": {
      "creator": "Bob",
      "amount": "0",
      "uom": "liters",
      "name": "milk",
      "skuid": "id2",
      "eventdata": {
        "DATE": "2019-03-30",
        "SourceUnit": "C123",
        "QUANTITY": "10",
        "NF/CENTER": "BobTruck1"
      }
    }
  },
  {
    "cmd": "story.save",
    "data": {
      "file": "./stories/output/mint-02.json"
    }
  }
]
